{
  "required": true,
  "minVersion": "0.8",
  "package": "com.knoobgroup.designated.mixin",
  "compatibilityLevel": "JAVA_8",
  "mixins": [
  ],
  "client": [
    "DesignatedMixin"
  ],
  "injectors": {
    "defaultRequire": 1
  }
}
